%YAML 1.1
%TAG !u! tag:unity3d.com,2011:
--- !u!21 &2100000
Material:
  serializedVersion: 8
  m_ObjectHideFlags: 0
  m_CorrespondingSourceObject: {fileID: 0}
  m_PrefabInstance: {fileID: 0}
  m_PrefabAsset: {fileID: 0}
  m_Name: Dissolve
  m_Shader: {fileID: -6465566751694194690, guid: 1e0f2ad96cc4ba9459e16e7402014f80, type: 3}
  m_Parent: {fileID: 0}
  m_ModifiedSerializedProperties: 0
  m_ValidKeywords:
  - _BUILTIN_ALPHATEST_ON
  - _BUILTIN_AlphaClip
  m_InvalidKeywords: []
  m_LightmapFlags: 4
  m_EnableInstancingVariants: 0
  m_DoubleSidedGI: 0
  m_CustomRenderQueue: -1
  stringTagMap:
    RenderType: TransparentCutout
  disabledShaderPasses: []
  m_LockedProperties: 
  m_SavedProperties:
    serializedVersion: 3
    m_TexEnvs:
    - _Base_texture:
        m_Texture: {fileID: 2800000, guid: b24b57e0cfed05643be34b0256df875e, type: 3}
        m_Scale: {x: 1, y: 1}
        m_Offset: {x: 0, y: 0}
    - _BumpMap:
        m_Texture: {fileID: 0}
        m_Scale: {x: 1, y: 1}
        m_Offset: {x: 0, y: 0}
    - _DetailAlbedoMap:
        m_Texture: {fileID: 0}
        m_Scale: {x: 1, y: 1}
        m_Offset: {x: 0, y: 0}
    - _DetailMask:
        m_Texture: {fileID: 0}
        m_Scale: {x: 1, y: 1}
        m_Offset: {x: 0, y: 0}
    - _DetailNormalMap:
        m_Texture: {fileID: 0}
        m_Scale: {x: 1, y: 1}
        m_Offset: {x: 0, y: 0}
    - _EmissionMap:
        m_Texture: {fileID: 0}
        m_Scale: {x: 1, y: 1}
        m_Offset: {x: 0, y: 0}
    - _MainTex:
        m_Texture: {fileID: 0}
        m_Scale: {x: 1, y: 1}
        m_Offset: {x: 0, y: 0}
    - _MetallicGlossMap:
        m_Texture: {fileID: 0}
        m_Scale: {x: 1, y: 1}
        m_Offset: {x: 0, y: 0}
    - _OcclusionMap:
        m_Texture: {fileID: 0}
        m_Scale: {x: 1, y: 1}
        m_Offset: {x: 0, y: 0}
    - _ParallaxMap:
        m_Texture: {fileID: 0}
        m_Scale: {x: 1, y: 1}
        m_Offset: {x: 0, y: 0}
    m_Ints: []
    m_Floats:
    - _BUILTIN_AlphaClip: 1
    - _BUILTIN_Blend: 0
    - _BUILTIN_CullMode: 2
    - _BUILTIN_DstBlend: 0
    - _BUILTIN_QueueControl: 0
    - _BUILTIN_QueueOffset: 0
    - _BUILTIN_SrcBlend: 1
    - _BUILTIN_Surface: 0
    - _BUILTIN_ZTest: 4
    - _BUILTIN_ZWrite: 1
    - _BUILTIN_ZWriteControl: 0
    - _BumpScale: 1
    - _Cutoff: 0.5
    - _Cutoff_height: -0.9
    - _DetailNormalMapScale: 1
    - _DstBlend: 0
    - _GlossMapScale: 1
    - _Glossiness: 0.5
    - _GlossyReflections: 1
    - _Glow_Thickness: 0.539
    - _Metallic: 0
    - _Mode: 0
    - _Noise_Scale: 100000
    - _OcclusionStrength: 1
    - _Parallax: 0.02
    - _SmoothnessTextureChannel: 0
    - _SpecularHighlights: 1
    - _SrcBlend: 1
    - _UVSec: 0
    - _ZWrite: 1
    m_Colors:
    - _Base_color: {r: 1, g: 1, b: 1, a: 0}
    - _Color: {r: 1, g: 1, b: 1, a: 1}
    - _Dissolve_Direction: {r: 1, g: 0, b: 1, a: 0}
    - _EmissionColor: {r: 0, g: 0, b: 0, a: 1}
    - _Glow_Color: {r: 0.31132078, g: 0, b: 0.027364554, a: 1}
  m_BuildTextureStacks: []
--- !u!114 &7471260103803104418
MonoBehaviour:
  m_ObjectHideFlags: 11
  m_CorrespondingSourceObject: {fileID: 0}
  m_PrefabInstance: {fileID: 0}
  m_PrefabAsset: {fileID: 0}
  m_GameObject: {fileID: 0}
  m_Enabled: 1
  m_EditorHideFlags: 0
  m_Script: {fileID: 11500000, guid: 639247ca83abc874e893eb93af2b5e44, type: 3}
  m_Name: 
  m_EditorClassIdentifier: 
  version: 0
